{
    "env": {
      "browserPermissions": {
        "notifications": "allow",
        "geolocation": "allow",
        "camera": "block",
        "microphone": "block",
        "images": "allow",
        "javascript": "allow",
        "popups": "ask",
        "plugins": "ask",
        "cookies": "allow"
      }
    }
  }